E:\BDD_Selenium\src\test\java\common\BasePage.java
E:\BDD_Selenium\src\test\java\Pages\login.java
E:\BDD_Selenium\src\test\java\main\runner.java
E:\BDD_Selenium\src\test\java\steps\CommonStepDefinition.java
